{
  "Item1": {
    "Name": "Vhal Arda",
    "ServerId": 405
  },
  "Item2": {
    "Leves": {
      "Allowances": 0,
      "LastUpdate": "2024-03-21T00:00:00Z"
    },
    "Squadron": {
      "MissionEnd": "0001-01-01T00:00:00",
      "TrainingEnd": "0001-01-01T00:00:00",
      "MissionId": 0,
      "TrainingId": 0,
      "NewRecruits": false
    },
    "Map": "0001-01-01T00:00:00",
    "MiniCactpot": {
      "LastUpdate": "0001-01-01T00:00:00",
      "Tickets": 0
    },
    "JumboCactpot": {
      "LastUpdate": "2024-03-18T01:50:38.3692958Z",
      "Tickets": [
        65535,
        65535,
        65535
      ]
    },
    "Delivery": {
      "Allowances": 12,
      "LastUpdate": "2023-03-21T23:53:11.7046136Z"
    },
    "Tribe": {
      "Allowances": 12,
      "LastUpdate": "2023-03-21T23:53:10.8378178Z"
    }
  }
}