{
  "Item1": {
    "Name": "Verdance",
    "Tag": "V6",
    "Leader": "Vhal Viras",
    "ServerId": 405
  },
  "Item2": [
    {
      "Name": "Vermillion",
      "Arrival": "2024-03-22T22:20:26Z",
      "Type": 2
    },
    {
      "Name": "Vitellary",
      "Arrival": "2024-03-23T01:10:37Z",
      "Type": 2
    },
    {
      "Name": "Verdigris",
      "Arrival": "2024-03-22T21:54:07Z",
      "Type": 2
    },
    {
      "Name": "Viridian",
      "Arrival": "2024-03-23T00:44:34Z",
      "Type": 2
    }
  ]
}