{
  "runtimeTarget": {
    "name": ".NETCoreApp,Version=v7.0",
    "signature": ""
  },
  "compilationOptions": {},
  "targets": {
    ".NETCoreApp,Version=v7.0": {
      "OtterGui/1.6.2.2": {
        "runtime": {
          "OtterGui.dll": {}
        }
      }
    }
  },
  "libraries": {
    "OtterGui/1.6.2.2": {
      "type": "project",
      "serviceable": false,
      "sha512": ""
    }
  }
}