{
  "Disabled": false,
  "Testing": false,
  "ScheduledForDeletion": false,
  "InstalledFromUrl": "https://raw.githubusercontent.com/xivdev/Penumbra/master/repo.json",
  "WorkingPluginId": "bc2d0036-3ccf-41e5-8705-23afcc1cd6fc",
  "IsThirdParty": true,
  "EffectiveVersion": "1.0.1.0",
  "Author": "Ottermandias, Adam, Wintermute",
  "Name": "Penumbra",
  "Punchline": null,
  "Description": "Runtime mod loader and manager.",
  "Changelog": null,
  "Tags": null,
  "CategoryTags": null,
  "IsHide": false,
  "InternalName": "Penumbra",
  "AssemblyVersion": "1.0.1.0",
  "TestingAssemblyVersion": "1.0.1.0",
  "IsTestingExclusive": false,
  "RepoUrl": "https://github.com/xivdev/Penumbra",
  "ApplicableVersion": "any",
  "DalamudApiLevel": 9,
  "DownloadCount": 0,
  "LastUpdate": 0,
  "DownloadLinkInstall": "https://github.com/xivdev/Penumbra/releases/download/1.0.1.0/Penumbra.zip",
  "DownloadLinkUpdate": "https://github.com/xivdev/Penumbra/releases/download/1.0.1.0/Penumbra.zip",
  "DownloadLinkTesting": "https://github.com/xivdev/Penumbra/releases/download/1.0.1.0/Penumbra.zip",
  "LoadRequiredState": 2,
  "LoadSync": true,
  "LoadPriority": 69420,
  "CanUnloadAsync": false,
  "SupportsProfiles": true,
  "ImageUrls": null,
  "IconUrl": "https://raw.githubusercontent.com/xivdev/Penumbra/master/images/icon.png",
  "AcceptsFeedback": true,
  "FeedbackMessage": null,
  "_Dip17Channel": null
}