{
  "Disabled": false,
  "Testing": false,
  "ScheduledForDeletion": false,
  "InstalledFromUrl": "OFFICIAL",
  "WorkingPluginId": "6cceee0a-ff89-4db0-9077-f1a26a4f9471",
  "IsThirdParty": false,
  "EffectiveVersion": "2.5.1.0",
  "Author": "kalilistic, karashiiro",
  "Name": "NeatNoter",
  "Punchline": "A note-taking plugin.",
  "Description": "NeatNoter allows you to take notes without switching windows or any of that.",
  "Changelog": null,
  "Tags": [
    "note",
    "utility",
    "tool",
    "overlay"
  ],
  "CategoryTags": null,
  "IsHide": false,
  "InternalName": "NeatNoter",
  "AssemblyVersion": "2.5.1.0",
  "TestingAssemblyVersion": null,
  "IsTestingExclusive": false,
  "RepoUrl": "https://github.com/kalilistic/NeatNoter",
  "ApplicableVersion": "any",
  "DalamudApiLevel": 9,
  "DownloadCount": 137383,
  "LastUpdate": 1710633304,
  "DownloadLinkInstall": "https://kamori.goats.dev/Plugin/Download/NeatNoter?isUpdate=False&isTesting=False&branch=api9&isDip17=True",
  "DownloadLinkUpdate": "https://raw.githubusercontent.com/goatcorp/DalamudPlugins/api9/plugins/NeatNoter/latest.zip",
  "DownloadLinkTesting": "https://kamori.goats.dev/Plugin/Download/NeatNoter?isUpdate=False&isTesting=True&branch=api9&isDip17=True",
  "LoadRequiredState": 0,
  "LoadSync": false,
  "LoadPriority": 0,
  "CanUnloadAsync": false,
  "SupportsProfiles": true,
  "ImageUrls": null,
  "IconUrl": "https://github.com/goatcorp/DalamudPlugins/blob/api6/plugins/NeatNoter/images/icon.png",
  "AcceptsFeedback": true,
  "FeedbackMessage": null,
  "_Dip17Channel": "stable"
}