{
  "$type": "Accountant.AccountantConfiguration, Accountant",
  "ShowCropTooltip": true,
  "Version": 4,
  "Enabled": true,
  "WindowVisible": true,
  "EnableRetainers": true,
  "EnableAirships": true,
  "EnableSubmersibles": true,
  "EnableWheels": true,
  "EnableCrops": true,
  "OrderByCrop": false,
  "EnableLeveAllowances": true,
  "EnableSquadron": true,
  "HideDisabled": false,
  "EnableMapAllowance": true,
  "ProhibitResize": false,
  "ProhibitMoving": false,
  "IgnoreIndoorPlants": false,
  "EnableMiniCactpot": true,
  "EnableJumboCactpot": true,
  "NoHeaderStyling": false,
  "EnableDeliveries": true,
  "EnableTribes": true,
  "LeveWarning": 85,
  "TribesFinished": 0,
  "Colors": {
    "$type": "System.Collections.Generic.Dictionary`2[[Accountant.Gui.ColorId, Accountant],[System.UInt32, System.Private.CoreLib]], System.Private.CoreLib",
    "TextObjectsAway": 4280295632,
    "TextObjectsMixed": 4280340688,
    "TextObjectsHome": 4280340512,
    "HeaderObjectsAway": 2147483808,
    "HeaderObjectsMixed": 2147524768,
    "HeaderObjectsHome": 2147524608,
    "TextCropWithered": 4280295632,
    "TextCropWilted": 4291829968,
    "TextCropGrown": 4280340512,
    "TextCropGrowing": 4280340688,
    "TextCropGuaranteed": 4291874848,
    "HeaderCropWithered": 2147483808,
    "HeaderCropWilted": 2157969568,
    "HeaderCropGrown": 2147524608,
    "HeaderCropGrowing": 2147524768,
    "HeaderCropGuaranteed": 2158010368,
    "TextLeveCap": 4280295632,
    "TextLeveWarning": 4280340688,
    "HeaderLeveCap": 2147483808,
    "HeaderLeveWarning": 2147524768,
    "CollapsedBorder": 4294967295,
    "NeutralText": 4294967295,
    "NeutralHeader": 1335269014,
    "DisabledText": 4286611584,
    "Background": 3221225472
  },
  "PlotNames": {
    "$type": "System.Collections.Generic.SortedList`2[[System.UInt64, System.Private.CoreLib],[System.String, System.Private.CoreLib]], System.Collections"
  },
  "BlockedPlots": [],
  "BlockedPlayersCrops": [],
  "BlockedPlayersRetainers": [],
  "BlockedPlayersTasks": [],
  "BlockedCompaniesAirships": [],
  "BlockedCompaniesSubmersibles": [],
  "BlockedCompaniesWheels": [],
  "BlockedCrops": [],
  "Priorities": {
    "$type": "System.Collections.Generic.Dictionary`2[[System.String, System.Private.CoreLib],[System.Int32, System.Private.CoreLib]], System.Private.CoreLib"
  }
}