{
  "$type": "MarketBoardPlugin.MBPluginConfig, MarketBoardPlugin",
  "Version": 1,
  "CrossDataCenter": false,
  "CrossWorld": true,
  "WatchForHovered": true,
  "History": [
    40753,
    31681,
    12903,
    11,
    8,
    10335,
    39872,
    31893,
    39727,
    39728,
    41654,
    41097,
    41056,
    21793,
    26802,
    32858,
    10386,
    40388,
    39640,
    9466,
    9462,
    15956,
    38264,
    36112,
    10373,
    12224,
    39647,
    5061,
    35970,
    2,
    5121,
    15,
    36242,
    36244,
    9,
    36258,
    33931,
    33937,
    33940,
    33939,
    33938,
    33936,
    33925,
    33922,
    33924,
    39665,
    12221,
    12227,
    33907,
    33262,
    36261,
    36260,
    37760,
    36070,
    39473,
    37823,
    36218,
    36220,
    36222,
    36221,
    36219,
    37826,
    37827,
    37829,
    37828,
    37825,
    5534,
    5537,
    13752,
    31764,
    5536,
    5535,
    12944,
    37840,
    3,
    5558,
    5346,
    5066,
    5115,
    5113,
    5064,
    5059,
    5379,
    26529,
    25008,
    26531,
    12534,
    5116,
    5143,
    13750,
    5395,
    12943,
    12538,
    5120,
    5118,
    37841,
    37282,
    13659,
    28824,
    21800
  ],
  "ContextMenuIntegration": true,
  "PriceIconShown": true,
  "NoGilSalesTax": false,
  "KofiHidden": false,
  "MarketBufferSize": 10,
  "ItemRefreshTimeout": 30000,
  "RecentHistoryDisabled": false
}