{
  "$type": "NeatNoter.NeatNoterConfiguration, NeatNoter",
  "Version": 0,
  "IncludeNoteBodiesInSearch": false,
  "JustInstalled": false,
  "AutomaticExportPath": null,
  "LockPosition": false,
  "LockSize": false,
  "SaveFrequency": 5000,
  "FullSaveFrequency": 14400000,
  "IsNoCategorySelected": true,
  "NoteSortType": 4,
  "CategorySortType": 4,
  "BackupRetention": 7,
  "BackupFrequency": 86400000,
  "LastBackup": 1711158178412,
  "PluginVersion": 2050100,
  "Notes": [],
  "Categories": [],
  "IsVisible": true,
  "ShowContentPreview": true
}